acquired_data_old.vcd
$date
	Wed November 25 2015
$end
$timescale 1us $end
$scope module logic $end
$var wire 1 A databit $end
$var wire 1 B clock $end
$upscope $end
$enddefinitions $end
$dumpvars
0A
0B
#30
1B
#73
0B
#92
1B
#110
0B
#129
1B
#146
1A
0B
#165
1B
#184
0B
#201
1B
#219
0A
0B
#238
1B
#257
1A
0B
#274
1B
#292
0A
0B
#311
1B
#328
0B
#345
1B
#363
0B
#380
1B
#397
1A
0B
#415
1B
#529
0A
0B
#587
1B
#606
0B
#625
1B
#642
0B
#661
1B
#677
0B
#694
1B
#711
0B
#729
1B
#746
1A
0B
#765
1B
#783
0B
#800
1B
#819
0B
#835
1B
#854
0B
#871
1B
#887
0B
#906
1B
#1018
0B
#1076
1B
#1098
0A
0B
#1117
1B
#1135
0B
#1154
1B
#1171
0B
#1190
1B
#1208
1A
0B
#1227
1B
#1244
0B
#1263
1B
#1280
0A
0B
#1298
1B
#1317
1A
0B
#1336
1B
#1355
0A
0B
#1372
1B
#1390
0B
#1407
1B
#1424
0B
#1442
1B
#1459
1A
0B
#1476
1B
#1589
0A
0B
#1655
1B
#1679
0B
#1700
1B
#1721
0B
#1742
1B
#1763
1A
0B
#1785
1B
#1806
0A
0B
#1827
1B
#1848
0B
#1868
1B
#1889
1A
0B
#1910
1B
#1931
0A
0B
#1950
1B
#1971
0B
#1992
1B
#2012
1A
0B
#2033
1B
#2054
0B
#2075
1B
#2186
0A
0B
#2252
1B
#2274
0B
#2295
1B
#2316
0B
#2337
1B
#2356
0B
#2375
1B
#2396
0B
#2415
1B
#2437
1A
0B
#2460
1B
#2479
0B
#2500
1B
#2519
0B
#2538
1B
#2559
0B
#2580
1B
#2600
0B
#2619
1B
#2640
0B
#2659
1B
#2680
0A
0B
#2701
1B
#2722
0B
#2741
1B
#2762
0B
#2781
1B
#2802
1A
0B
#2824
1B
#2843
0A
0B
#2956
1B
#3020
0B
#3044
1B
#3065
1A
0B
#3086
1B
#3107
0A
0B
#3129
1B
#3148
0B
#3169
1B
#3190
1A
0B
#3213
1B
#3232
0B
#3253
1B
#3351
0A
0B
#3410
1B
#3431
1A
0B
#3452
1B
#3469
0B
#3488
1B
#3506
0A
0B
#3523
1B
#3542
1A
0B
#3561
1B
#3579
0B
#3596
1B
#3613
0A
0B
#3632
1B
#3650
0B
#3669
1B
#3686
0B
#3704
1B
#3721
1A
0B
#3740
1B
#3809
0B
#3851
1B
#3920
0A
0B
#3964
1B
#3985
0B
#4004
1B
#4021
0B
#4038
1B
#4057
0B
#4075
1B
#4092
0B
#4109
1B
#4128
1A
0B
#4147
1B
#4165
0B
#4182
1B
#4200
0B
#4217
1B
#4236
0B
#4253
1B
#4271
0B
#4288
1B
#4307
0B
#4325
1B
#4390
0A
0B
#4434
1B
#4455
1A
0B
#4475
1B
#4494
0B
#4512
1B
#4529
0A
0B
#4548
1B
#4566
1A
0B
#4585
1B
#4602
0B
#4621
1B
#4638
0A
0B
#4657
1B
#4675
0B
#4692
1B
#4709
0B
#4727
1B
#4744
1A
0B
#4763
1B
#4781
0B
#4798
1B
#4855
0A
0B
#4887
1B
#4895
0B
#4904
1B
#4912
0B
#4919
1B
#4928
1A
0B
#4935
1B
#4944
0B
#4951
1B
#4959
0A
0B
#4966
1B
#4973
1A
0B
#4983
1B
#4990
0A
0B
#4998
1B
#5006
0B
#5013
1B
#5020
0B
#5029
1B
#5036
1A
0B
#5044
1B
#5102
0A
0B
#5145
1B
#5193
0B
#5213
1B
#5230
0B
#5249
1B
#5268
0B
#5285
1B
#5304
0B
#5322
1B
#5339
1A
0B
#5358
1B
#5377
0B
#5395
1B
#5412
0B
#5429
1B
#5448
0B
#5464
1B
#5483
0B
#5501
1B
#5519
0B
#5535
1B
#5608
0A
0B
#5653
1B
#5674
0B
#5692
1B
#5720
0B
#5745
1B
#5764
1A
0B
#5782
1B
#5800
0B
#5818
1B
#5835
0A
0B
#5855
1B
#5873
1A
0B
#5890
1B
#5908
0A
0B
#5928
1B
#5945
0B
#5963
1B
#5981
0B
#6000
1B
#6018
1A
0B
