acquired_data.vcd
$date
	Wed December 02 2015
$end
$timescale 1us $end
$scope module logic $end
$var wire 1 A databit $end
$var wire 1 B clock $end
$upscope $end
$enddefinitions $end
$dumpvars
0A
0B
#83502
1H
1G
#265399
0H
#416014
1H
#566637
0H
#719196
1H
#839642
0H
#988607
1H
#1134600
0H
#1294401
1H
#1418326
0H
#1586071
1H
#1710519
0H
#1885632
1H
#2022907
0H
#2203335
1H
#2333851
0H
#2509948
1H
#2638773
0H
#3109439
1H
#3275096
0H
#3288402
1H
#3534692
0H
#3759249
1H
#3857706
0H
#4018649
1H
#4182635
0H
#4358741
1H
#4358825
0H
#4359223
1H
#4491346
0H
#4959683
1H
#5105338
0H
#5295366
1H
#5432358
0H
#5480614
1H
#5724847
0H
#5922176
1H
#5922415
0H
#5922500
1H
#6054023
0H
#6555109
1H
#6555254
0H
#6555376
1H
#6751323
0H
#7001548
1H
#7140806
0H
#7317183
1H
#7455328
0H
#7676300
1H
#7817920
0H
#8001131
1H
#8159395
0H
#8316556
1H
#8492743
0H
#8639353
1H
#8795424
0H
#8970543
1H
#9130917
0H
#9291457
1H
#9464940
0H
#9621186
1H
#9774860
0H
#9945676
1H
#10105629
0H
#10282483
1H
#10411610
0H
#10915669
1H
#11094656
0H
#11248187
1H
#11410279
0H
#11574613
1H
#11740961
0H
#11901545
1H
#12058703
0H
#12239788
1H
#12386531
0H
#12562732
1H
#12709984
0H
#12894178
1H
#13042835
0H
#13212021
1H
#13387895
0H
#13542788
1H
#13738473
0H
#13876364
1H
#14073063
0H
#14230098
1H
#14401516
0H
#14562620
1H
#14562762
0H
#14562899
1H
#14563049
0H
#14563173
1H
#14749009
0H
#14916319
1H
#15096103
0H
#15295725
1H
#15432708
0H
#15607375
1H
#15777511
0H
#15949154
1H
#16137149
0H
#16315940
1H
#16490867
0H
#16682306
1H
#16804841
0H
#17011656
1H
#17011820
0H
#17011913
1H
#17191454
0H
#17350235
1H
#17527240
0H
#17706190
1H
#17872169
0H
#18050626
1H
#18245688
0H
#18413982
1H
#18592770
0H
#18729553
1H
#18912999
0H
#19078457
1H
#19275132
0H
#19411135
1H
#19613824
0H
#19887157
1H
#20014022
0H
#20159247
1H
#20370690
0H
#20596795
1H
#20741313
0H
#21253647
1H
#21442577
0H
#21584322
1H
#22164909
0H
#22325821
1H
#22325905
0H
#22326074
1H
#22521204
0H
#22704121
1H
#22860207
0H
