acquired_data.vcd
$date
	Thu December 17 2015
$end
$timescale 1us $end
$scope module logic $end
$var wire 1 A databit $end
$var wire 1 B clock $end
$upscope $end
$enddefinitions $end
$dumpvars
0A
0B
#5144
0A
1B
#5219
1A
#6099
1A
#16638
0A
0B
#16713
1A
#16793
0A
#17273
1A
1B
#17353
0A
